{
  "formatVersion": 1,
  "database": {
    "version": 1,
    "identityHash": "33f7f97eaf63c45a89275947b6cc1a53",
    "entities": [
      {
        "tableName": "Agent",
        "createSql": "CREATE TABLE IF NOT EXISTS `${TABLE_NAME}` (`agent_id` TEXT NOT NULL, `agent_email` TEXT, `agent_code` TEXT, PRIMARY KEY(`agent_id`))",
        "fields": [
          {
            "fieldPath": "agent_id",
            "columnName": "agent_id",
            "affinity": "TEXT",
            "notNull": true
          },
          {
            "fieldPath": "agent_email",
            "columnName": "agent_email",
            "affinity": "TEXT",
            "notNull": false
          },
          {
            "fieldPath": "agent_code",
            "columnName": "agent_code",
            "affinity": "TEXT",
            "notNull": false
          }
        ],
        "primaryKey": {
          "columnNames": [
            "agent_id"
          ],
          "autoGenerate": false
        },
        "indices": [],
        "foreignKeys": []
      },
      {
        "tableName": "Enqueue",
        "createSql": "CREATE TABLE IF NOT EXISTS `${TABLE_NAME}` (`enq_contact` TEXT NOT NULL, `enq_name` TEXT, PRIMARY KEY(`enq_contact`))",
        "fields": [
          {
            "fieldPath": "enq_contact",
            "columnName": "enq_contact",
            "affinity": "TEXT",
            "notNull": true
          },
          {
            "fieldPath": "enq_name",
            "columnName": "enq_name",
            "affinity": "TEXT",
            "notNull": false
          }
        ],
        "primaryKey": {
          "columnNames": [
            "enq_contact"
          ],
          "autoGenerate": false
        },
        "indices": [],
        "foreignKeys": []
      },
      {
        "tableName": "Served",
        "createSql": "CREATE TABLE IF NOT EXISTS `${TABLE_NAME}` (`user_contact` TEXT NOT NULL, `joinTime` TEXT, `served_time` TEXT, PRIMARY KEY(`user_contact`))",
        "fields": [
          {
            "fieldPath": "user_contact",
            "columnName": "user_contact",
            "affinity": "TEXT",
            "notNull": true
          },
          {
            "fieldPath": "joinTime",
            "columnName": "joinTime",
            "affinity": "TEXT",
            "notNull": false
          },
          {
            "fieldPath": "served_time",
            "columnName": "served_time",
            "affinity": "TEXT",
            "notNull": false
          }
        ],
        "primaryKey": {
          "columnNames": [
            "user_contact"
          ],
          "autoGenerate": false
        },
        "indices": [],
        "foreignKeys": []
      },
      {
        "tableName": "Delayed",
        "createSql": "CREATE TABLE IF NOT EXISTS `${TABLE_NAME}` (`user_contact` TEXT NOT NULL, `joinTime` TEXT, `delayed_time` TEXT, PRIMARY KEY(`user_contact`))",
        "fields": [
          {
            "fieldPath": "user_contact",
            "columnName": "user_contact",
            "affinity": "TEXT",
            "notNull": true
          },
          {
            "fieldPath": "joinTime",
            "columnName": "joinTime",
            "affinity": "TEXT",
            "notNull": false
          },
          {
            "fieldPath": "delayed_time",
            "columnName": "delayed_time",
            "affinity": "TEXT",
            "notNull": false
          }
        ],
        "primaryKey": {
          "columnNames": [
            "user_contact"
          ],
          "autoGenerate": false
        },
        "indices": [],
        "foreignKeys": []
      },
      {
        "tableName": "Queue",
        "createSql": "CREATE TABLE IF NOT EXISTS `${TABLE_NAME}` (`member_id` TEXT NOT NULL, `joinTime` TEXT, `user_name` TEXT, `num_code` TEXT, `position` INTEGER NOT NULL, PRIMARY KEY(`member_id`))",
        "fields": [
          {
            "fieldPath": "member_id",
            "columnName": "member_id",
            "affinity": "TEXT",
            "notNull": true
          },
          {
            "fieldPath": "joinTime",
            "columnName": "joinTime",
            "affinity": "TEXT",
            "notNull": false
          },
          {
            "fieldPath": "user_name",
            "columnName": "user_name",
            "affinity": "TEXT",
            "notNull": false
          },
          {
            "fieldPath": "num_code",
            "columnName": "num_code",
            "affinity": "TEXT",
            "notNull": false
          },
          {
            "fieldPath": "position",
            "columnName": "position",
            "affinity": "INTEGER",
            "notNull": true
          }
        ],
        "primaryKey": {
          "columnNames": [
            "member_id"
          ],
          "autoGenerate": false
        },
        "indices": [],
        "foreignKeys": []
      }
    ],
    "setupQueries": [
      "CREATE TABLE IF NOT EXISTS room_master_table (id INTEGER PRIMARY KEY,identity_hash TEXT)",
      "INSERT OR REPLACE INTO room_master_table (id,identity_hash) VALUES(42, \"33f7f97eaf63c45a89275947b6cc1a53\")"
    ]
  }
}